{
    "steam": {
        "path": "C:\\Program Files (x86)\\Steam"
    },
    "grids": [
        {
            "name": "Positions by Winrate (A/D)",
            "users": ["hauzerr"],

            "core_rank": "Ancient",
            "support_rank": "Divine",

            "total_pickrate_treshold": 0.005,
            "lane_pickrate_treshold": 0.05
        },
        {
            "name": "Positions by Winrate (L/L)",
            "users": ["hauzerr"],

            "core_rank": "Legend",
            "support_rank": "Legend",

            "total_pickrate_treshold": 0.005,
            "lane_pickrate_treshold": 0.05
        },
        {
            "name": "Positions by Winrate (C/C)",
            "users": ["hauzzerr"],

            "core_rank": "Crusader",
            "support_rank": "Crusader",

            "total_pickrate_treshold": 0.005,
            "lane_pickrate_treshold": 0.05
        }
    ]
}